Jakub Jędrusiak - Podstawy programowania w R
…
Rows: 54 Columns: 18
── Column specification ────────────────────────────────────────────────────────
Delimiter: ","
chr (17): Godzina rozpoczęcia, Godzina ukończenia, Adres e-mail, Płeć, Wiek ...
dbl  (1): ID

ℹ Use `spec()` to retrieve the full column specification for this data.
ℹ Specify the column types or set `show_col_types = FALSE` to quiet this message.

Już widzę, że nic mi się nie zgadza, z 18 kolumn 17 zostało rozpoznane jako kolumny tekstowe (chr), a tylko kolumna ID jako liczby (dbl). Za chwilę będziemy to czyścić. Żeby wyświetlić nasze dane, mogę wpisać w konsolę nazwę, pod którą je zapisałem. Nasza baza pojawiła się też w okienku w prawym górnym rogu. Kliknięcie na nią tam spowoduje wyświetlenie jej w oddzielnej karcie. Warto zauważyć, że nie możemy jej tam edytować.

df

# A tibble: 54 × 18
      ID Godzina…¹ Godzi…² Adres…³ Płeć  Wiek …⁴ Wyksz…⁵ Wyraż…⁶ Takie…⁷ Takie…⁸
   <dbl> <chr>     <chr>   <chr>   <chr> <chr>   <chr>   <chr>   <chr>   <chr>  
 1     1 1.19.22 … 1.19.2… anonym… Mężc… 21      Średnie Tak     5 – zg… 5 – zg…
 2     2 1.24.22 … 1.24.2… anonym… Mężc… 52      Wyższe  Tak     5 – zg… 5 – zg…
 3     3 1.25.22 … 1.25.2… anonym… Mężc… 64      Wyższe  Tak     4 – ra… 5 – zg…
 4     5 3.2.22 1… 3.2.22… anonym… Kobi… <NA>    <NA>    <NA>    <NA>    <NA>   
 5     6 3.2.22 1… 3.2.22… anonym… Mężc… 25      Średnie Tak     6 – zd… 6 – zd…
 6     7 3.2.22 1… 3.2.22… anonym… Mężc… 22      Zawodo… Tak     5 – zg… 5 – zg…
 7     8 3.2.22 1… 3.2.22… anonym… Kobi… <NA>    <NA>    <NA>    <NA>    <NA>   
 8     9 3.2.22 1… 3.2.22… anonym… Mężc… 18      Podsta… Tak     4 – ra… 5 – zg…
 9    10 3.2.22 1… 3.2.22… anonym… Mężc… 18      Podsta… Tak     5 – zg… 6 – zd…
10    11 3.2.22 1… 3.2.22… anonym… Kobi… <NA>    <NA>    <NA>    <NA>    <NA>   
# … with 44 more rows, 8 more variables:
#   `Takie widoki w przestrzeni publicznej są normalne [3/10]` <chr>,
#   `Takie widoki w przestrzeni publicznej są normalne [4/10]` <chr>,
#   `Takie widoki w przestrzeni publicznej są normalne [5/10]` <chr>,
#   `Takie widoki w przestrzeni publicznej są normalne [6/10]` <chr>,
#   `Takie widoki w przestrzeni publicznej są normalne [7/10]` <chr>,
#   `Takie widoki w przestrzeni publicznej są normalne [8/10]` <chr>, …
…
Kod ten możemy uruchomić dla dowolnej ilości danych, w dowolnym momencie. Jest wielokrotnego użytku i spokojnie możemy go wykorzystać, kiedy baza się rozrośnie. Nie musimy go wtedy pisać od nowa, wystarczy, że go uruchomimy. Co więcej, mogę wpaść jeszcze na jakiś pomysł i dopisać linijkę na samym początku, nie musząc całej reszty robić od nowa. Sprawmy sobie tę przyjemność i zerknijmy na naszą wyczyszczoną bazę.

df

# A tibble: 45 × 15
      id  wiek wyksztal…¹ H_suma   H_1   H_2   H_3   H_4   H_5   H_6   H_7   H_8
   <dbl> <dbl> <ord>       <dbl> <dbl> <dbl> <dbl> <dbl> <dbl> <dbl> <dbl> <dbl>
 1    54    21 Wyższe         44     5     5     5     5     2     5     2     5
 2    33    22 Wyższe         43     5     5     4     5     2     5     2     5
 3    30    23 Wyższe         45     6     5     5     5     2     5     3     5
 4    49    23 Wyższe         45     6     6     6     6     1     6     1     6
 5    31    24 Wyższe         39     3     4     4     4     3     4     4     4
 6    38    25 Wyższe         44     5     5     5     5     2     5     2     5
 7    46    25 Wyższe         33     5     5     1     5     2     1     3     5
 8    43    26 Wyższe         45     6     6     6     6     1     6     1     6
 9    35    29 Wyższe         50     6     6     6     6     1     6     1     6
10     2    52 Wyższe         44     5     5     5     5     2     5     2     5
# … with 35 more rows, 3 more variables: H_9 <dbl>, H_10 <dbl>,
#   wyksztalcenie_grupa <chr>, and abbreviated variable name ¹​wyksztalcenie
…
