Nieobliczalne - Listy, pętle i automatyzacja w R
…
2 Listy

Podstawową metodą automatyzacji we wszystkich językach programowania są pętle. W R też one występują, można z nich korzystać i omówię je, jednak pętle w R nie są najlepszą metodą. Są one mało wydajne. Jeśli chcemy coś wykonać wielokrotnie, najlepszą drogą – o ile to możliwe – są listy. Lista to szczególny typ danych w R, którego największą zaletą jest to, że może przechowywać inne formy danych. Innymi słowy możemy szybko zrobić listę naszych surowych baz danych, które chcemy potem wyczyścić. Co ważniejsze, możemy potem do każdego elementu listy zastosować jakąś funkcję.

Listę tworzymy przede wszystkim przez komendę list. Możemy do niej wrzucić rzeczy, które chcemy przerobić na listę. Dla przykładu zróbmy listę z dwóch wbudowanych baz danych – iris i mpg.

bazy_danych <- list(
    as_tibble(iris), # tibble dla lepszego drukowania w konsoli
    as_tibble(mpg)
)

bazy_danych

#> [[1]]
#> # A tibble: 150 × 5
#>    Sepal.Length Sepal.Width Petal.Length Petal.Width Species
#>           <dbl>       <dbl>        <dbl>       <dbl> <fct>  
#>  1          5.1         3.5          1.4         0.2 setosa 
#>  2          4.9         3            1.4         0.2 setosa 
#>  3          4.7         3.2          1.3         0.2 setosa 
#>  4          4.6         3.1          1.5         0.2 setosa 
#>  5          5           3.6          1.4         0.2 setosa 
#>  6          5.4         3.9          1.7         0.4 setosa 
#>  7          4.6         3.4          1.4         0.3 setosa 
#>  8          5           3.4          1.5         0.2 setosa 
#>  9          4.4         2.9          1.4         0.2 setosa 
#> 10          4.9         3.1          1.5         0.1 setosa 
#> # … with 140 more rows
#> 
#> [[2]]
#> # A tibble: 234 × 11
#>    manufacturer model      displ  year   cyl trans drv     cty   hwy fl    class
#>    <chr>        <chr>      <dbl> <int> <int> <chr> <chr> <int> <int> <chr> <chr>
#>  1 audi         a4           1.8  1999     4 auto… f        18    29 p     comp…
#>  2 audi         a4           1.8  1999     4 manu… f        21    29 p     comp…
#>  3 audi         a4           2    2008     4 manu… f        20    31 p     comp…
#>  4 audi         a4           2    2008     4 auto… f        21    30 p     comp…
#>  5 audi         a4           2.8  1999     6 auto… f        16    26 p     comp…
#>  6 audi         a4           2.8  1999     6 manu… f        18    26 p     comp…
#>  7 audi         a4           3.1  2008     6 auto… f        18    27 p     comp…
#>  8 audi         a4 quattro   1.8  1999     4 manu… 4        18    26 p     comp…
#>  9 audi         a4 quattro   1.8  1999     4 auto… 4        16    25 p     comp…
#> 10 audi         a4 quattro   2    2008     4 manu… 4        20    28 p     comp…
#> # … with 224 more rows
…
bazy <- map(bazy_lista, wyczysc)

Efektem działania tej funkcji jest lista wyczyszczonych baz, z których każda ma tylko jeden wiersz (bo tak zrobiliśmy nasze czyszczenie). Jednak do analizy statystycznej nie jest potrzebna lista, tylko pojedyncza baza. Połączmy więc naszą listę w pojedynczą bazę za pomocą funkcji bind_rows. Możemy ją wywołać na nowopowstałej zmiennej bazy albo już wcześniej dodać ją potokiem do mapowania.

# tak jest dobrze
bazy <- map(bazy_lista, wyczysc)
bazy <- bind_rows(bazy)

# tak też jest dobrze
bazy <- map(bazy_lista, wyczysc) %>%
    bind_rows()

bazy

#> # A tibble: 35 × 12
#>    id    warunek plec       wiek pyt_1 pyt_2 pyt_3 pyt_4 pyt_5 pyt_6 pyt_7 pyt_8
#>    <chr> <chr>   <chr>     <dbl> <dbl> <dbl> <dbl> <dbl> <dbl> <dbl> <dbl> <dbl>
#>  1 nN3zb trudny  kobieta      20     0     1     1     0     1     0     0     1
#>  2 9X7x2 latwy   kobieta      21     1     1     1     1     1     0     0     1
#>  3 Awyis latwy   mezczyzna    24     1     1     0     1     1     1     0     0
#>  4 y2Rdz latwy   kobieta      17     1     0     1     1     1     0     0     1
#>  5 JrXsV trudny  mezczyzna    17     0     0     1     1     1     1     1     1
#>  6 rrL0C latwy   mezczyzna    23     1     0     1     1     1     1     0     1
#>  7 wHsx0 trudny  kobieta      17     1     0     1     1     1     0     0     1
#>  8 YDejs trudny  kobieta      17     0     1     1     1     1     0     0     0
#>  9 Ntqj2 latwy   mezczyzna    20     0     0     1     1     1     1     0     0
#> 10 KkuCT latwy   kobieta      20     1     1     0     1     0     1     1     0
#> # … with 25 more rows
…
