Nieobliczalne - Metaprogramowanie w R
…
Ups. Nie działa. Ale czemu? Błąd mówi, że group_by() nie znalazło kolumny o nazwie group. I bardzo słusznie, że nie znalazło, bo nie ma takiej kolumny w iris. Ale w ogóle nie miało jej szukać! Miało szukać kolumny Species, którą podaliśmy jako argument? Dlaczego group_by() szuka kolumny group?

2 Tidy Eval

To, co teraz opowiem, jest uznawane za bardzo zaawansowaną część języka R. Najgłębiej opisuje te zagadnienia Hadley Wickham3 w książce Advanced R. Sam bardzo długo próbowałem to zrozumieć, aż w końcu udało mi się niedawno, podczas pisania pakietu mtscr. Gdy wreszcie to zrozumiałem, to uznałem, że nie jest to aż takie trudne, tylko opisane jak dla informatyków, matematyków, inżynierów, a nie jak dla psychologów, socjologów, ekonomistów czy całej reszty ludzkości. Dokładnie ten sam problem mam ze statystyką w ogóle.

Jednocześnie nie jest to coś, co większość useRów musi rozumieć. Taka potrzeba pojawia się zazwyczaj głęboko, późno, gdy chcemy usprawnić nasz kod własnymi funkcjami4 albo musimy napisać jakiś pakiet. Zazwyczaj pierwszy raz, kiedy chcemy napisać funkcję robiącą wykres w ggplot2 i się blokujemy. Wtedy znajdujemy na StackOverflow informację, że trzeba nazwy kolumn wziąć w podwójne klamry (np. {{column}}) i tyle nam wystarczy, nie musimy zajmować się tym głębiej. Do czasu, kiedy jednak musimy.

Skąd więc biorą się problemy takie jak w przykładzie? To jest cena, którą płacimy za wygodne pisanie kodu. W klasycznym R, gdy chcemy coś policzyć, musimy wykorzystywać pełne nazwy kolumn. Podobnie gdy coś filtrujemy.

iris[iris$Sepal.Length > 5, c("Species", "Sepal.Length")] %>%
    as_tibble()

# A tibble: 118 × 2
   Species Sepal.Length
   <fct>          <dbl>
 1 setosa           5.1
 2 setosa           5.4
 3 setosa           5.4
 4 setosa           5.8
 5 setosa           5.7
 6 setosa           5.4
 7 setosa           5.1
 8 setosa           5.7
 9 setosa           5.1
10 setosa           5.4
# ℹ 108 more rows
…
