Jakub Jędrusiak - Podstawy programowania w R
…
Rysunek 2: Przykład wykorzystania narzędzia do importu danych.

Już widzę, że nic mi się nie zgadza. Z 18 kolumn 17 zostało rozpoznane jako kolumny tekstowe (chr), a tylko kolumna ID jako liczby (dbl). Za chwilę będziemy to czyścić. Żeby wyświetlić nasze dane, mogę wpisać w konsolę nazwę, pod którą je zapisałem. Nasza baza pojawiła się też w okienku w prawym górnym rogu. Kliknięcie na nią tam spowoduje wyświetlenie jej w oddzielnej karcie. Warto zauważyć, że nie możemy jej tam edytować.

df

#> # A tibble: 54 × 18
#>       ID Godzina…¹ Godzi…² Adres…³ Płeć  Wiek …⁴ Wyksz…⁵ Wyraż…⁶ Takie…⁷ Takie…⁸
#>    <dbl> <chr>     <chr>   <chr>   <chr> <chr>   <chr>   <chr>   <chr>   <chr>  
#>  1     1 1.19.22 … 1.19.2… anonym… Mężc… 21      Średnie Tak     5 – zg… 5 – zg…
#>  2     2 1.24.22 … 1.24.2… anonym… Mężc… 52      Wyższe  Tak     5 – zg… 5 – zg…
#>  3     3 1.25.22 … 1.25.2… anonym… Mężc… 64      Wyższe  Tak     4 – ra… 5 – zg…
#>  4     5 3.2.22 1… 3.2.22… anonym… Kobi… NA      NA      NA      NA      NA     
#>  5     6 3.2.22 1… 3.2.22… anonym… Mężc… 25      Średnie Tak     6 – zd… 6 – zd…
#>  6     7 3.2.22 1… 3.2.22… anonym… Mężc… 22      Zawodo… Tak     5 – zg… 5 – zg…
#>  7     8 3.2.22 1… 3.2.22… anonym… Kobi… NA      NA      NA      NA      NA     
#>  8     9 3.2.22 1… 3.2.22… anonym… Mężc… 18      Podsta… Tak     4 – ra… 5 – zg…
#>  9    10 3.2.22 1… 3.2.22… anonym… Mężc… 18      Podsta… Tak     5 – zg… 6 – zd…
#> 10    11 3.2.22 1… 3.2.22… anonym… Kobi… NA      NA      NA      NA      NA     
#> # … with 44 more rows, 8 more variables:
#> #   `Takie widoki w przestrzeni publicznej są normalne [3/10]` <chr>,
#> #   `Takie widoki w przestrzeni publicznej są normalne [4/10]` <chr>,
#> #   `Takie widoki w przestrzeni publicznej są normalne [5/10]` <chr>,
#> #   `Takie widoki w przestrzeni publicznej są normalne [6/10]` <chr>,
#> #   `Takie widoki w przestrzeni publicznej są normalne [7/10]` <chr>,
#> #   `Takie widoki w przestrzeni publicznej są normalne [8/10]` <chr>, …
…
Kod ten możemy uruchomić dla dowolnej ilości danych, w dowolnym momencie. Jest wielokrotnego użytku i spokojnie możemy go wykorzystać, kiedy baza się rozrośnie. Nie musimy go wtedy pisać od nowa, a wystarczy, że go uruchomimy. Co więcej, mogę wpaść jeszcze na jakiś pomysł i dopisać linijkę na samym początku, nie musząc całej reszty robić od nowa. Sprawmy sobie tę przyjemność i zerknijmy na naszą wyczyszczoną bazę.

df

#> # A tibble: 45 × 15
#>       id  wiek wyksztal…¹ H_suma   H_1   H_2   H_3   H_4   H_5   H_6   H_7   H_8
#>    <dbl> <dbl> <ord>       <dbl> <dbl> <dbl> <dbl> <dbl> <dbl> <dbl> <dbl> <dbl>
#>  1    54    21 Wyższe         44     5     5     5     5     2     5     2     5
#>  2    33    22 Wyższe         43     5     5     4     5     2     5     2     5
#>  3    30    23 Wyższe         45     6     5     5     5     2     5     3     5
#>  4    49    23 Wyższe         45     6     6     6     6     1     6     1     6
#>  5    31    24 Wyższe         39     3     4     4     4     3     4     4     4
#>  6    38    25 Wyższe         44     5     5     5     5     2     5     2     5
#>  7    46    25 Wyższe         33     5     5     1     5     2     1     3     5
#>  8    43    26 Wyższe         45     6     6     6     6     1     6     1     6
#>  9    35    29 Wyższe         50     6     6     6     6     1     6     1     6
#> 10     2    52 Wyższe         44     5     5     5     5     2     5     2     5
#> # … with 35 more rows, 3 more variables: H_9 <dbl>, H_10 <dbl>,
#> #   wyksztalcenie_grupa <chr>, and abbreviated variable name ¹​wyksztalcenie
…
pivot_wider ma prostszą składnię, ponieważ nie trzeba w niej wskazywać zakresu kolumn do rozwinięcia, a jedynie gdzie znajdują się nazwy kolumn, a gdzie ich wartości. Robimy to odpowiednio argumentami names_from i values_from. Jeśli jakiejś wartości nie ma w formacie długim (np. gdy osoba z numerem 4 nie odpowiedziała na pytanie 2, to w formacie długim może nie być wiersza 4 H_2), to pivot_wider automatycznie wstawi w tę komórkę NA27. Zdarza się, że funkcji tej musimy użyć dlatego, że niektóre programy generują dane w formacie długim.

5.9 Retesty czyli złączenia (joins)

Złączenia (joins) to, jak nazwa wskazuje, metoda łączenia dwóch baz danych. Jest to jedna z podstawowych operacji na bazach danych, znana co najmniej od lat 70. i instrukcji JOIN w SQL. Jest to także jedna z operacji niedostępnych w Excelu bez Power Query. W praktyce badawczej może być ona konieczna, gdy mamy badanie wieloczęściowe, w którym musimy stosować wiele baz danych (np. jedną tworzą pomiary z eyetrackera, drugą wyniki w ankiecie, a trzecią test szybkości reakcji). Często zdarza się to też w prostych badaniach ankietowych, w których po jakimś czasie musimy wykonać retest. W obu tych przypadkach lądujemy z dwiema (lub więcej) bazami, które – miejmy nadzieję – mają jakąś wspólną kolumnę, identyfikator osoby badanej, taki sam w każdej z trzech baz28.

Jak więc takie bazy połączyć? Wykorzystajmy tutaj dwie bazy zawierające test i retest, zrobione podczas walidacji kwestionariusza o nazwie KTR. Składał się on z dwóch skal oznaczonych tutaj literkami O i W. Standardową procedurą przy projektowaniu kwestionariusza jest powtórzenie pomiaru po jakimś czasie, żeby sprawdzić, na ile wyniki są stabilne. My taką procedurę wykonaliśmy, przez co dysponujemy dwiema oddzielnymi bazami. Zerknijmy na nie.

db_test <- read_csv("./dane/podstawy-R/join-test.csv", show_col_types = FALSE)
db_retest <- read_csv("./dane/podstawy-R/join-retest.csv", show_col_types = FALSE)

db_test

#> # A tibble: 76 × 3
#>    ID    KTR_O KTR_W
#>    <chr> <dbl> <dbl>
#>  1 B3RP     26    30
#>  2 v4Eb     31    36
#>  3 j3vB     20    31
#>  4 wced     27    37
#>  5 RhPy     15    31
#>  6 aoEF     32    31
#>  7 CjRB     23    28
#>  8 bYhC     28    41
#>  9 zCdZ     17    27
#> 10 wspA     21    34
#> # … with 66 more rows

db_retest

#> # A tibble: 66 × 3
#>    Subject KTR_O KTR_W
#>    <chr>   <dbl> <dbl>
#>  1 j3vB       23    31
#>  2 wced       25    38
#>  3 aoEF       33    31
#>  4 CjRB       24    34
#>  5 bYhC       29    41
#>  6 zCdZ       17    28
#>  7 wspA       24    29
#>  8 GGwI       18    35
#>  9 L9ZW       23    35
#> 10 1stk       24    33
#> # … with 56 more rows
…
Ja przyłączę retest do bazy z wynikami pierwszego testu. Widzę jednak dwa problemy, które będę musiał rozwiązać. Po pierwsze, kolumna z identyfikatorem osoby badanej nazywa się inaczej w obu bazach. Po drugie, kolumny KTR_O i KTR_W nazywają się tak samo w obu bazach. Będę więc musiał wskazać R, na podstawie jakich kolumn ma dokonać złączenia, a także jak ma nazwać kolumny w gotowej bazie, żebym wiedział, które wyniki dotyczą pierwszego testu, a które retestu.

db_joined <- db_test %>%
    left_join(
        db_retest,
        by = join_by(ID == Subject),
        suffix = c("", "_retest")
    )

db_joined

#> # A tibble: 76 × 5
#>    ID    KTR_O KTR_W KTR_O_retest KTR_W_retest
#>    <chr> <dbl> <dbl>        <dbl>        <dbl>
#>  1 B3RP     26    30           NA           NA
#>  2 v4Eb     31    36           NA           NA
#>  3 j3vB     20    31           23           31
#>  4 wced     27    37           25           38
#>  5 RhPy     15    31           NA           NA
#>  6 aoEF     32    31           33           31
#>  7 CjRB     23    28           24           34
#>  8 bYhC     28    41           29           41
#>  9 zCdZ     17    27           17           28
#> 10 wspA     21    34           24           29
#> # … with 66 more rows
…
Widzimy więc, że oba współczynniki (estimate) są istotne statystycznie, z czego długość działki kielicha ma współczynnik dodatni, a szerokość ujemny.

8.1.3 augment

Ostania funkcja czyszcząca nie do końca cokolwiek czyści. Pozwala ona na dodanie do oryginalnej bazy danych informacji zaczerpniętych z modelu, m.in. jaką wartość przewiduje model dla tego przypadku, jaka jest wartość resztkowa (residual), zwykła i standaryzowana, jaki jest dystans Cooka i hat value itd. Dokładne możliwości funkcji augment zależą od rodzaju modelu. Są to informacje użyteczne chociażby kiedy chcemy zidentyfikować outliery. Wszystkie dodane kolumny mają nazwy zaczynające się kropką.

augment(lm_price)

#> # A tibble: 150 × 9
#>    Petal.Length Sepal.…¹ Sepal…² .fitted   .resid   .hat .sigma .cooksd .std.r…³
#>           <dbl>    <dbl>   <dbl>   <dbl>    <dbl>  <dbl>  <dbl>   <dbl>    <dbl>
#>  1          1.4      5.1     3.5    1.85 -0.446   0.0177  0.648 2.91e-3 -0.695  
#>  2          1.4      4.9     3      2.16 -0.760   0.0159  0.646 7.54e-3 -1.18   
#>  3          1.3      4.7     3.2    1.54 -0.237   0.0196  0.648 9.15e-4 -0.370  
#>  4          1.5      4.6     3.1    1.49  0.00677 0.0218  0.649 8.34e-7  0.0106 
#>  5          1.4      5       3.6    1.53 -0.134   0.0222  0.649 3.34e-4 -0.210  
#>  6          1.7      5.4     3.9    1.84 -0.143   0.0324  0.649 5.63e-4 -0.225  
#>  7          1.4      4.6     3.4    1.09  0.308   0.0243  0.648 1.94e-3  0.483  
#>  8          1.5      5       3.4    1.80 -0.302   0.0167  0.648 1.25e-3 -0.471  
#>  9          1.4      4.4     2.9    1.41 -0.00584 0.0292  0.649 8.43e-7 -0.00917
#> 10          1.5      4.9     3.1    2.03 -0.526   0.0154  0.647 3.50e-3 -0.820  
#> # … with 140 more rows, and abbreviated variable names ¹​Sepal.Length,
#> #   ²​Sepal.Width, ³​.std.resid
…
# ANOVA
anova_test(diamonds, price ~ cut + color + clarity)

#> ANOVA Table (type II tests)
#> 
#>    Effect DFn   DFd       F         p p<.05   ges
#> 1     cut   4 53922  93.715  1.42e-79     * 0.007
#> 2   color   6 53922 298.044  0.00e+00     * 0.032
#> 3 clarity   7 53922 192.094 1.30e-282     * 0.024

# testy post-hoc
tukey_hsd(diamonds, price ~ cut + color + clarity)

#> # A tibble: 59 × 9
#>    term  group1    group2    null.value estim…¹ conf.…² conf.…³    p.adj p.adj…⁴
#>  * <chr> <chr>     <chr>          <dbl>   <dbl>   <dbl>   <dbl>    <dbl> <chr>  
#>  1 cut   Fair      Good               0  -430.   -732.   -128.  9.86e- 4 ***    
#>  2 cut   Fair      Very Good          0  -377.   -656.    -97.9 2.13e- 3 **     
#>  3 cut   Fair      Premium            0   225.    -51.5   503.  1.72e- 1 ns     
#>  4 cut   Fair      Ideal              0  -901.  -1173.   -629.  6.68e-14 ****   
#>  5 cut   Good      Very Good          0    52.9  -125.    231.  9.28e- 1 ns     
#>  6 cut   Good      Premium            0   655.    481.    830.  4.22e-14 ****   
#>  7 cut   Good      Ideal              0  -471.   -638.   -305.  1.4 e-13 ****   
#>  8 cut   Very Good Premium            0   602.    471.    734.  0        ****   
#>  9 cut   Very Good Ideal              0  -524.   -644.   -405.  0        ****   
#> 10 cut   Premium   Ideal              0 -1127.  -1241.  -1012.  0        ****   
#> # … with 49 more rows, and abbreviated variable names ¹​estimate, ²​conf.low,
#> #   ³​conf.high, ⁴​p.adj.signif
…
df %>%
    selcet(H_1:H_3)

#> Error in selcet(., H_1:H_3): nie udało się znaleźć funkcji 'selcet'

Powyższa komenda zwraca błąd could not find function "selcet", co może zdarzyć się w dwóch sytuacjach – nie załadowaliśmy pakietu, w którym ta funkcja się znajduje, albo zrobiliśmy literówkę. Tutaj uważne przeczytanie wskazuje na tę drugą ewentualność, zamieniłem literki miejscami.

df %>%
    mutate(
        H_suma = sum(pick(H_1:H_10)),
        .after = id
    )

#> # A tibble: 45 × 15
#>       id  wiek wyksztal…¹ H_suma   H_1   H_2   H_3   H_4   H_5   H_6   H_7   H_8
#>    <dbl> <dbl> <ord>       <dbl> <dbl> <dbl> <dbl> <dbl> <dbl> <dbl> <dbl> <dbl>
#>  1    54    21 Wyższe       1932     5     5     5     5     2     5     2     5
#>  2    33    22 Wyższe       1932     5     5     4     5     2     5     2     5
#>  3    30    23 Wyższe       1932     6     5     5     5     2     5     3     5
#>  4    49    23 Wyższe       1932     6     6     6     6     1     6     1     6
#>  5    31    24 Wyższe       1932     3     4     4     4     3     4     4     4
#>  6    38    25 Wyższe       1932     5     5     5     5     2     5     2     5
#>  7    46    25 Wyższe       1932     5     5     1     5     2     1     3     5
#>  8    43    26 Wyższe       1932     6     6     6     6     1     6     1     6
#>  9    35    29 Wyższe       1932     6     6     6     6     1     6     1     6
#> 10     2    52 Wyższe       1932     5     5     5     5     2     5     2     5
#> # … with 35 more rows, 3 more variables: H_9 <dbl>, H_10 <dbl>,
#> #   wyksztalcenie_grupa <chr>, and abbreviated variable name ¹​wyksztalcenie

Powyższy przykład na nas nie krzyczy, wykonuje się, jednak nie działa tak, jak byśmy chcieli. Celem tego kodu było uzyskanie sumy kolumn od H1 do H10 dla każdej osoby badanej, jak robiliśmy w podrozdziale 5.4.1. Jednak kod nie działa tak, jak byśmy chcieli. W każdej komórce kolumny H_suma znajduje się ta sama wartość. Zaskakująco duża. Wynika to z tego, że R domyślnie myśli kolumnami, nie wierszami. Gdy więc każemy mu sumować kolumny od H1 do H10, to sumuje całe kolumny i w każdą komórkę wrzuca tę sumę. Jeśli chcemy policzyć sumę dla każdego wiersza z osobna, to musimy albo użyć funkcji rowSums zamiast zwykłego sum, albo wcześniej przepuścić przez funkcję rowwise(), czego nie robiliśmy wcześniej.

df %>%
    rowwise() %>%
    mutate(
        H_suma = sum(pick(H_1:H_10)),
        .after = id
    )

#> # A tibble: 45 × 15
#> # Rowwise: 
#>       id  wiek wyksztal…¹ H_suma   H_1   H_2   H_3   H_4   H_5   H_6   H_7   H_8
#>    <dbl> <dbl> <ord>       <dbl> <dbl> <dbl> <dbl> <dbl> <dbl> <dbl> <dbl> <dbl>
#>  1    54    21 Wyższe         44     5     5     5     5     2     5     2     5
#>  2    33    22 Wyższe         43     5     5     4     5     2     5     2     5
#>  3    30    23 Wyższe         45     6     5     5     5     2     5     3     5
#>  4    49    23 Wyższe         45     6     6     6     6     1     6     1     6
#>  5    31    24 Wyższe         39     3     4     4     4     3     4     4     4
#>  6    38    25 Wyższe         44     5     5     5     5     2     5     2     5
#>  7    46    25 Wyższe         33     5     5     1     5     2     1     3     5
#>  8    43    26 Wyższe         45     6     6     6     6     1     6     1     6
#>  9    35    29 Wyższe         50     6     6     6     6     1     6     1     6
#> 10     2    52 Wyższe         44     5     5     5     5     2     5     2     5
#> # … with 35 more rows, 3 more variables: H_9 <dbl>, H_10 <dbl>,
#> #   wyksztalcenie_grupa <chr>, and abbreviated variable name ¹​wyksztalcenie
…
